Division,WeightClassKg,Place,Name,Team,BodyweightKg,Best3SquatKg,Best3BenchKg,Best3DeadliftKg,TotalKg,Equipment,Event,Sex,BirthDate
Boys,51.71,1,Chasmon Davis,Everman,50.62,158.76,83.91,158.76,401.43,Single-ply,SBD,M,
Boys,51.71,2,Ty Kirkbride,Denison,48.63,138.35,65.77,138.35,342.46,Single-ply,SBD,M,
Boys,51.71,3,Payton Cole,Bells,46.45,113.4,63.5,113.4,290.3,Single-ply,SBD,M,
Boys,51.71,4,Deunte Ogaro,Everman,44.45,113.4,52.16,122.47,288.03,Single-ply,SBD,M,
Boys,51.71,DQ,Richard Manuel,Gainesville,51.71,38.56,31.75,45.36,,Single-ply,SBD,M,
Boys,55.79,1,Dj Williams,Everman,55.34,170.1,92.99,158.76,421.84,Single-ply,SBD,M,
Boys,55.79,2,Warren Ruiz-Demaree,Anna,53.89,151.95,88.45,158.76,399.16,Single-ply,SBD,M,
Boys,55.79,3,Armando Carrillo,Bells,55.25,136.08,77.11,142.88,356.07,Single-ply,SBD,M,
Boys,55.79,4,Xavier Bollin,Leonard,55.52,120.2,83.91,136.08,340.19,Single-ply,SBD,M,
Boys,55.79,5,Ralen Allen,Everman,53.8,113.4,68.04,142.88,324.32,Single-ply,SBD,M,
Boys,55.79,6,Conner Jacobs,Whitesboro,55.79,117.93,63.5,136.08,317.51,Single-ply,SBD,M,
Boys,55.79,7,Breyden Loucks,Krum,55.34,106.59,61.23,136.08,303.91,Single-ply,SBD,M,
Boys,55.79,8,Micah Sharpe,Gainesville,55.25,124.74,63.5,106.59,294.84,Single-ply,SBD,M,
Boys,55.79,9,Jacob Fogleman,Whitewright,54.88,90.72,63.5,92.99,247.21,Single-ply,SBD,M,
Boys,59.87,1,Ever Barron,Everman,59.69,170.1,117.93,199.58,487.61,Single-ply,SBD,M,
Boys,59.87,2,Ignacio Salais,Whitesboro,59.87,195.04,106.59,183.7,485.34,Single-ply,SBD,M,
Boys,59.87,3,Carter McFadden,Anna,57.06,183.7,99.79,183.7,467.2,Single-ply,SBD,M,
Boys,59.87,4,James Duvall,Prosper,59.51,147.42,95.25,170.1,412.77,Single-ply,SBD,M,
Boys,59.87,5,Anthony Henry,Gainesville,59.78,154.22,92.99,165.56,412.77,Single-ply,SBD,M,
Boys,59.87,6,Carlos DeJesus,Prosper,56.88,151.95,81.65,170.1,403.7,Single-ply,SBD,M,
Boys,59.87,7,Keane Ortega,Sadler S & S Cons,58.97,136.08,74.84,172.37,383.29,Single-ply,SBD,M,
Boys,59.87,8,Dj Fogleman,Whitewright,58.88,149.69,86.18,131.54,367.41,Single-ply,SBD,M,
Boys,59.87,9,Brandon Halliburton,Anna,58.6,133.81,61.23,138.35,333.39,Single-ply,SBD,M,
Boys,59.87,10,Adrian Perez,Castleberry,58.24,113.4,92.99,102.06,308.44,Single-ply,SBD,M,
Boys,59.87,11,Trevor Martin,Pilot Point,58.33,117.93,65.77,115.67,299.37,Single-ply,SBD,M,
Boys,59.87,12,Asher Reinhard,Howe,57.42,90.72,58.97,92.99,242.67,Single-ply,SBD,M,
Boys,59.87,DQ,Joe Carranza,Krum,57.52,,,,,Single-ply,SBD,M,
Boys,59.87,DQ,Edwin Rodriguez,Pilot Point,59.51,179.17,,,,Single-ply,SBD,M,
Boys,67.13,1,Luke Kirkbride,Denison,66.22,215.46,127.01,215.46,557.92,Single-ply,SBD,M,
Boys,67.13,2,Jackson Haines,Prosper,66.32,185.97,113.4,172.37,471.74,Single-ply,SBD,M,
Boys,67.13,3,Aaron Ambriz,Everman,67.13,158.76,115.67,192.78,467.2,Single-ply,SBD,M,
Boys,67.13,4,Ethan Barboza,Castleberry,65.95,176.9,102.06,163.29,442.25,Single-ply,SBD,M,
Boys,67.13,5,Nick Rhineheart,Bonham,65.14,167.83,111.13,156.49,435.45,Single-ply,SBD,M,
Boys,67.13,6,Tyler Newby,Leonard,66.41,167.83,97.52,158.76,424.11,Single-ply,SBD,M,
Boys,67.13,7,Josh Barlagna,Leonard,65.23,167.83,102.06,147.42,417.3,Single-ply,SBD,M,
Boys,67.13,8,Garyion Hart,Denison,66.95,181.44,81.65,154.22,417.3,Single-ply,SBD,M,
Boys,67.13,9,Justin Lewis,Lucas Lovejoy,64.41,151.95,81.65,151.95,385.55,Single-ply,SBD,M,
Boys,67.13,10,Grady Waldrip,Bells,66.41,136.08,86.18,163.29,385.55,Single-ply,SBD,M,
Boys,67.13,11,Brennan Bates,Sherman,66.5,151.95,72.57,154.22,378.75,Single-ply,SBD,M,
Boys,67.13,12,Alex Sustaita,Gainesville,64.23,149.69,70.31,156.49,376.48,Single-ply,SBD,M,
Boys,67.13,13,Blake Smith,Sadler S & S Cons,64.05,129.27,72.57,167.83,369.68,Single-ply,SBD,M,
Boys,67.13,14,Colby McSpedden,Sadler S & S Cons,66.95,136.08,70.31,154.22,360.61,Single-ply,SBD,M,
Boys,67.13,15,Gharron Sheffield,Lucas Lovejoy,66.5,136.08,72.57,142.88,351.53,Single-ply,SBD,M,
Boys,67.13,16,Austin Gonzales,Lucas Lovejoy,63.05,124.74,61.23,140.61,326.59,Single-ply,SBD,M,
Boys,67.13,17,Jackson Wahl,Celina,65.41,117.93,77.11,120.2,315.25,Single-ply,SBD,M,
Boys,74.84,1,Micah Justice,Sherman,74.75,204.12,129.27,219.99,553.38,Single-ply,SBD,M,
Boys,74.84,2,Kevin Jarvis,Everman,73.66,204.12,104.33,204.12,512.56,Single-ply,SBD,M,
Boys,74.84,3,Josue Hernandez,Anna,74.48,192.78,122.47,190.51,505.76,Single-ply,SBD,M,
Boys,74.84,4,Greyson Blanchard,Celina,73.12,190.51,108.86,201.85,501.22,Single-ply,SBD,M,
Boys,74.84,5,Brendene Ramos,Castleberry,73.84,174.63,131.54,181.44,487.61,Single-ply,SBD,M,
Boys,74.84,6,Tyler Smith #1,Lucas Lovejoy,73.12,192.78,111.13,181.44,485.34,Single-ply,SBD,M,
Boys,74.84,7,Gage Moore,Sadler S & S Cons,71.94,174.63,108.86,199.58,483.08,Single-ply,SBD,M,
Boys,74.84,8,Army Ellison,Celina,72.67,188.24,111.13,179.17,478.54,Single-ply,SBD,M,
Boys,74.84,9,Keityn Eitelman,Pottsboro,69.22,192.78,102.06,172.37,467.2,Single-ply,SBD,M,
Boys,74.84,10,Jose Liciero,Castleberry,74.12,163.29,127.01,176.9,467.2,Single-ply,SBD,M,
Boys,74.84,11,Taylor Kern,Krum,73.12,151.95,124.74,163.29,439.98,Single-ply,SBD,M,
Boys,74.84,12,Jackson Taylor,Celina,70.49,165.56,106.59,163.29,435.45,Single-ply,SBD,M,
Boys,74.84,13,Grant Peck,Prosper,70.4,158.76,108.86,158.76,426.38,Single-ply,SBD,M,
Boys,74.84,14,Canyon Payne,Bells,73.84,161.03,83.91,181.44,426.38,Single-ply,SBD,M,
Boys,74.84,15,Harrison Dempsey,Gainesville,71.94,179.17,92.99,142.88,415.04,Single-ply,SBD,M,
Boys,74.84,16,Juan Hernandez #21,Castleberry,70.67,147.42,102.06,161.03,410.5,Single-ply,SBD,M,
Boys,74.84,17,Hagan York,Whitewright,74.75,142.88,90.72,147.42,381.02,Single-ply,SBD,M,
Boys,74.84,18,Payton Jones,Krum,73.03,145.15,83.91,149.69,378.75,Single-ply,SBD,M,
Boys,74.84,19,Landon Peterson,Krum,74.66,147.42,79.38,145.15,371.95,Single-ply,SBD,M,
Boys,74.84,20,Preson Jones,Lucas Lovejoy,70.13,142.88,72.57,151.95,367.41,Single-ply,SBD,M,
Boys,74.84,21,Collin Branch,Pottsboro,68.67,136.08,74.84,151.95,362.87,Single-ply,SBD,M,
Boys,74.84,22,Brandon Wheeler,Pilot Point,67.68,136.08,81.65,140.61,358.34,Single-ply,SBD,M,
Boys,74.84,23,Charles Burk,Gainesville,74.66,129.27,70.31,142.88,342.46,Single-ply,SBD,M,
Boys,74.84,24,Francisco Delgado,Pilot Point,68.4,113.4,83.91,136.08,333.39,Single-ply,SBD,M,
Boys,74.84,25,Misael Hernandez,Pilot Point,69.22,124.74,65.77,142.88,333.39,Single-ply,SBD,M,
Boys,74.84,26,Sean Portman,Whitesboro,69.58,124.74,77.11,129.27,331.12,Single-ply,SBD,M,
Boys,74.84,27,Gabe Gibson,Bells,70.49,120.2,72.57,129.27,322.05,Single-ply,SBD,M,
Boys,74.84,28,Darren Riddle,Whitesboro,72.48,102.06,70.31,129.27,301.64,Single-ply,SBD,M,
Boys,74.84,29,Kameron Metzler,Lindsay,73.48,124.74,54.43,102.06,281.23,Single-ply,SBD,M,
Boys,74.84,DQ,Cagen Clark,Krum,72.48,154.22,,,,Single-ply,SBD,M,
Boys,74.84,DQ,Jake Cook,Krum,72.57,,,,,Single-ply,SBD,M,
Boys,74.84,DQ,Cameron Washington,Sherman,72.48,,,,,Single-ply,SBD,M,
Boys,82.1,1,Diego Cortez,Everman,80.2,249.48,117.93,226.8,594.21,Single-ply,SBD,M,
Boys,82.1,2,Dwayne Wilson,Gainesville,82.1,240.4,117.93,217.72,576.06,Single-ply,SBD,M,
Boys,82.1,3,Jose Martinez #6,Celina,76.84,215.46,133.81,210.92,560.19,Single-ply,SBD,M,
Boys,82.1,4,Blake Slaughter,Lucas Lovejoy,79.74,217.72,138.35,181.44,537.51,Single-ply,SBD,M,
Boys,82.1,5,Jayce Morgan,Gainesville,78.93,219.99,120.2,183.7,523.9,Single-ply,SBD,M,
Boys,82.1,6,Robert Singleton,Gainesville,79.65,195.04,108.86,215.46,519.36,Single-ply,SBD,M,
Boys,82.1,7,Marco DeTomas,Prosper,77.75,208.65,108.86,188.24,505.76,Single-ply,SBD,M,
Boys,82.1,8,Mason Ford,Gainesville,79.29,201.85,113.4,188.24,503.49,Single-ply,SBD,M,
Boys,82.1,9,John Wheeler,Leonard,80.29,172.37,122.47,181.44,476.27,Single-ply,SBD,M,
Boys,82.1,10,Keith Qualls,Lucas Lovejoy,80.01,181.44,92.99,195.04,469.47,Single-ply,SBD,M,
Boys,82.1,11,Cole Moore,Bells,82.1,183.7,102.06,183.7,469.47,Single-ply,SBD,M,
Boys,82.1,12,Dalton Doyle,Leonard,80.92,174.63,106.59,181.44,462.66,Single-ply,SBD,M,
Boys,82.1,13,Alonzo Abreau,Castleberry,80.01,151.95,108.86,172.37,433.18,Single-ply,SBD,M,
Boys,82.1,14,Zach Colwell,Sadler S & S Cons,76.2,176.9,79.38,154.22,410.5,Single-ply,SBD,M,
Boys,82.1,15,Andrew Burdette,Pottsboro,81.1,158.76,92.99,136.08,387.82,Single-ply,SBD,M,
Boys,82.1,16,Kyle Morris,Whitewright,76.93,138.35,97.52,145.15,381.02,Single-ply,SBD,M,
Boys,82.1,17,David Roberts #4,Krum,76.2,127.01,86.18,147.42,360.61,Single-ply,SBD,M,
Boys,82.1,DQ,Jacob Miller,Krum,79.74,,,,,Single-ply,SBD,M,
Boys,82.1,DQ,Marcellus Toombs,Prosper,79.83,,,,,Single-ply,SBD,M,
Boys,82.1,DQ,Brendan Muisyo,Anna,81.1,136.08,,,,Single-ply,SBD,M,
Boys,89.81,1,Yovanni Juarez,Gainesville,88.27,260.82,197.31,204.12,662.24,Single-ply,SBD,M,
Boys,89.81,2,Luke Porter,Bonham,88.81,258.55,151.95,231.33,641.83,Single-ply,SBD,M,
Boys,89.81,3,Drayden Lawson,Pilot Point,85.91,215.46,124.74,233.6,573.79,Single-ply,SBD,M,
Boys,89.81,4,Aiden Straub,Bonham,87.54,235.87,102.06,231.33,569.26,Single-ply,SBD,M,
Boys,89.81,5,Caden Joyce,Anna,87.82,219.99,129.27,201.85,551.11,Single-ply,SBD,M,
Boys,89.81,6,Trey Cook,Krum,88.63,199.58,122.47,226.8,548.85,Single-ply,SBD,M,
Boys,89.81,7,Alex Swartz,Krum,87.36,229.06,129.27,183.7,542.04,Single-ply,SBD,M,
Boys,89.81,8,Garrett Kemp,Whitesboro,87.54,204.12,120.2,217.72,542.04,Single-ply,SBD,M,
Boys,89.81,9,Martin Grijalva,Sherman,84.37,204.12,124.74,204.12,532.97,Single-ply,SBD,M,
Boys,89.81,10,Brad Kissinger,Celina,85.55,219.99,124.74,174.63,519.36,Single-ply,SBD,M,
Boys,89.81,11,Raul Hernandez,Howe,87.63,215.46,102.06,188.24,505.76,Single-ply,SBD,M,
Boys,89.81,12,Carl Besario,Bells,85.73,190.51,92.99,183.7,467.2,Single-ply,SBD,M,
Boys,89.81,13,Colton Dunn,Celina,87.45,181.44,97.52,170.1,449.06,Single-ply,SBD,M,
Boys,89.81,14,Jake Reynolds,Sadler S & S Cons,83.19,181.44,72.57,181.44,435.45,Single-ply,SBD,M,
Boys,89.81,15,Logan Yeck,Krum,86.82,149.69,95.25,188.24,433.18,Single-ply,SBD,M,
Boys,89.81,16,Kyron Smith,Gainesville,88.72,165.56,90.72,170.1,426.38,Single-ply,SBD,M,
Boys,89.81,17,Seth Fulencheck,Denison,88.18,158.76,108.86,156.49,424.11,Single-ply,SBD,M,
Boys,89.81,18,Conway Smith,Krum,85.64,156.49,92.99,172.37,421.84,Single-ply,SBD,M,
Boys,89.81,19,William Worley,Krum,89.81,145.15,111.13,165.56,421.84,Single-ply,SBD,M,
Boys,89.81,20,Kasey Sanders #1,Whitewright,88.99,165.56,102.06,151.95,419.57,Single-ply,SBD,M,
Boys,89.81,21,Jaden Hedges,Whitesboro,86.73,142.88,95.25,149.69,387.82,Single-ply,SBD,M,
Boys,89.81,22,Jacob Castillo,Whitesboro,84.73,127.01,88.45,163.29,378.75,Single-ply,SBD,M,
Boys,89.81,23,Marshall Knowlton,Whitesboro,88.72,151.95,102.06,124.74,378.75,Single-ply,SBD,M,
Boys,89.81,24,Isaah Ryan,Bonham,83.55,136.08,68.04,136.08,340.19,Single-ply,SBD,M,
Boys,89.81,25,Joaquin Mendoza,Everman,85.73,124.74,74.84,136.08,335.66,Single-ply,SBD,M,
Boys,89.81,26,Noah Gardner,Lucas Lovejoy,85.91,115.67,79.38,127.01,322.05,Single-ply,SBD,M,
Boys,89.81,DQ,Payton Strawn,Valley View,85.28,147.42,,,,Single-ply,SBD,M,
Boys,99.79,1,Markos Morales,Whitesboro,91.44,210.92,117.93,231.33,560.19,Single-ply,SBD,M,
Boys,99.79,2,Ben Branam,Bells,96.16,204.12,129.27,197.31,530.7,Single-ply,SBD,M,
Boys,99.79,3,Brandon Fangman,Pilot Point,99.06,204.12,142.88,183.7,530.7,Single-ply,SBD,M,
Boys,99.79,4,Edgar Aguliar,Sadler S & S Cons,90.26,192.78,113.4,222.26,528.44,Single-ply,SBD,M,
Boys,99.79,5,Jose Perez #16,Anna,95.71,176.9,133.81,185.97,496.68,Single-ply,SBD,M,
Boys,99.79,6,Jacob Kennedy,Bonham,93.44,197.31,106.59,188.24,492.15,Single-ply,SBD,M,
Boys,99.79,7,Josue Arellanes,Castleberry,91.72,183.7,108.86,188.24,480.81,Single-ply,SBD,M,
Boys,99.79,8,Drelyn Shannon MckKnight,Everman,94.26,181.44,136.08,158.76,476.27,Single-ply,SBD,M,
Boys,99.79,9,Jake Ellingwood,Krum,96.34,170.1,99.79,190.51,460.4,Single-ply,SBD,M,
Boys,99.79,10,Jacob Stathis,Prosper,92.71,170.1,113.4,174.63,458.13,Single-ply,SBD,M,
Boys,99.79,11,Jude Walters,Denison,98.61,181.44,108.86,167.83,458.13,Single-ply,SBD,M,
Boys,99.79,12,Braden Harris,Leonard,97.52,181.44,104.33,170.1,455.86,Single-ply,SBD,M,
Boys,99.79,13,Caleb Artrip,Anna,95.44,165.56,129.27,158.76,453.59,Single-ply,SBD,M,
Boys,99.79,14,Coy Warmoth,Krum,96.62,163.29,111.13,167.83,442.25,Single-ply,SBD,M,
Boys,99.79,15,Miguel Artega,Bonham,99.79,170.1,102.06,167.83,439.98,Single-ply,SBD,M,
Boys,99.79,16,Jeremiah Velten,Whitesboro,92.08,161.03,88.45,185.97,435.45,Single-ply,SBD,M,
Boys,99.79,17,Jacob Field,Anna,97.07,151.95,95.25,170.1,417.3,Single-ply,SBD,M,
Boys,99.79,18,Jax Gage,Whitewright,92.35,163.29,97.52,151.95,412.77,Single-ply,SBD,M,
Boys,99.79,19,Conner Markham,Whitesboro,98.79,147.42,90.72,170.1,408.23,Single-ply,SBD,M,
Boys,99.79,20,Jake Alonzo,Pottsboro,92.44,140.61,104.33,158.76,403.7,Single-ply,SBD,M,
Boys,99.79,21,Fernando Rodriguez,Castleberry,98.79,167.83,83.91,151.95,403.7,Single-ply,SBD,M,
Boys,99.79,22,Jj McKinney,Bells,97.16,151.95,92.99,136.08,381.02,Single-ply,SBD,M,
Boys,99.79,DQ,Ezequiel Delgado,Gainesville,91.63,,,,,Single-ply,SBD,M,
Boys,109.77,1,Radley Hamm,Whitewright,103.24,247.21,172.37,199.58,619.15,Single-ply,SBD,M,
Boys,109.77,2,Kamron Rogers,Leonard,109.77,256.28,131.54,217.72,605.55,Single-ply,SBD,M,
Boys,109.77,3,Blake Peters,Bells,108.23,249.48,142.88,197.31,589.67,Single-ply,SBD,M,
Boys,109.77,4,Brandon Woods,Whitewright,107.41,222.26,133.81,222.26,578.33,Single-ply,SBD,M,
Boys,109.77,5,Tito Chavez,Sherman,107.95,213.19,131.54,206.38,551.11,Single-ply,SBD,M,
Boys,109.77,6,Ben Beggs,Pilot Point,109.68,210.92,120.2,204.12,535.24,Single-ply,SBD,M,
Boys,109.77,7,Braedon Schneider,Gainesville,109.68,208.65,124.74,192.78,526.17,Single-ply,SBD,M,
Boys,109.77,8,Colby Crawley,Denison,104.87,183.7,131.54,204.12,519.36,Single-ply,SBD,M,
Boys,109.77,9,Nash Gagliano,Prosper,105.32,226.8,113.4,174.63,514.83,Single-ply,SBD,M,
Boys,109.77,10,Atibordin Sophonsakulrat,Prosper,109.68,199.58,108.86,197.31,505.76,Single-ply,SBD,M,
Boys,109.77,11,Connor Murdock,Krum,104.14,195.04,117.93,190.51,503.49,Single-ply,SBD,M,
Boys,109.77,12,Bryan Resendiz,Everman,107.14,167.83,99.79,165.56,433.18,Single-ply,SBD,M,
Boys,109.77,13,Luke Jackson,Howe,102.69,163.29,102.06,165.56,430.91,Single-ply,SBD,M,
Boys,109.77,14,Kevin Allen,Everman,107.23,147.42,104.33,147.42,399.16,Single-ply,SBD,M,
Boys,109.77,15,Bradley Carruth,Bonham,109.04,151.95,92.99,149.69,394.63,Single-ply,SBD,M,
Boys,109.77,16,Quinton Douglas,Bells,104.96,147.42,79.38,165.56,392.36,Single-ply,SBD,M,
Boys,109.77,17,Jack Porter,Bonham,103.24,145.15,90.72,142.88,378.75,Single-ply,SBD,M,
Boys,109.77,18,Aaron Weeks,Bonham,107.86,138.35,74.84,124.74,337.93,Single-ply,SBD,M,
Boys,109.77,DQ,Issac Copley,Krum,106.96,229.06,131.54,179.17,,Single-ply,SBD,M,
Boys,109.77,DQ,Taylor Miller #1,Everman,109.77,170.1,,,,Single-ply,SBD,M,
Boys,124.74,1,Jalan Henderson,Everman,124.38,272.16,167.83,249.48,689.46,Single-ply,SBD,M,
Boys,124.74,2,Drew Williams,Denison,115.3,276.69,176.9,208.65,662.24,Single-ply,SBD,M,
Boys,124.74,3,Damian Stuver,Prosper,121.74,265.35,163.29,226.8,655.44,Single-ply,SBD,M,
Boys,124.74,4,Jose Conejo,Denison,117.3,272.16,147.42,213.19,632.76,Single-ply,SBD,M,
Boys,124.74,5,Johan de la Rosa,Gainesville,124.56,247.21,142.88,215.46,605.55,Single-ply,SBD,M,
Boys,124.74,6,Seth Martin,Everman,124.38,238.14,136.08,226.8,601.01,Single-ply,SBD,M,
Boys,124.74,7,Charles Sanders,Castleberry,116.39,226.8,142.88,226.8,596.47,Single-ply,SBD,M,
Boys,124.74,8,Jesse Coffey #2,Gainesville,122.2,235.87,151.95,204.12,591.94,Single-ply,SBD,M,
Boys,124.74,9,Adrian Anderson,Everman,117.75,244.94,149.69,170.1,564.72,Single-ply,SBD,M,
Boys,124.74,10,Benny Relford,Denison,115.58,226.8,113.4,206.38,546.58,Single-ply,SBD,M,
Boys,124.74,11,William Fleming,Howe,121.93,192.78,124.74,174.63,492.15,Single-ply,SBD,M,
Boys,124.74,12,Collin Mills,Leonard,118.02,170.1,129.27,158.76,458.13,Single-ply,SBD,M,
Boys,124.74,13,Issac Bower,Valley View,122.47,195.04,108.86,142.88,446.79,Single-ply,SBD,M,
Boys,124.74,14,Kristifer Stitzer,Pilot Point,118.66,136.08,113.4,136.08,385.55,Single-ply,SBD,M,
Boys,124.74,15,Bryse Byler,Pottsboro,112.04,145.15,86.18,136.08,367.41,Single-ply,SBD,M,
Boys,124.74,16,Jason Hayes,Sadler S & S Cons,117.75,151.95,113.4,102.06,367.41,Single-ply,SBD,M,
Boys,124.74,DQ,Brandon Wade,Everman,121.47,170.1,83.91,,,Single-ply,SBD,M,
Boys,124.74+,1,Tyler Smith #2,Sherman,133.08,263.08,124.74,274.42,662.24,Single-ply,SBD,M,
Boys,124.74+,2,Drake Stephens #2,Bells,151.95,274.42,147.42,210.92,632.76,Single-ply,SBD,M,
Boys,124.74+,3,Aaron Prideaux,Prosper,132.9,263.08,151.95,215.46,630.49,Single-ply,SBD,M,
Boys,124.74+,4,Brian Jobes,Lucas Lovejoy,140.43,247.21,170.1,213.19,630.49,Single-ply,SBD,M,
Boys,124.74+,5,D'Marrya Searcy,Everman,155.4,249.48,170.1,170.1,589.67,Single-ply,SBD,M,
Boys,124.74+,6,Colton Mitchell,Denison,132.54,258.55,127.01,199.58,585.13,Single-ply,SBD,M,
Boys,124.74+,7,Addison Crockett,Valley View,127.01,229.06,127.01,215.46,571.53,Single-ply,SBD,M,
Boys,124.74+,8,Jacob Scott,Pilot Point,154.49,199.58,97.52,190.51,487.61,Single-ply,SBD,M,
Boys,124.74+,9,Ethan Moore,Valley View,145.15,188.24,104.33,183.7,476.27,Single-ply,SBD,M,
Boys,124.74+,10,Gabe Jameson,Krum,132.72,174.63,129.27,163.29,467.2,Single-ply,SBD,M,
Boys,124.74+,11,Marc Anthony Gonzales,Whitewright,128.28,176.9,108.86,172.37,458.13,Single-ply,SBD,M,
Boys,124.74+,12,Jared Pele,Everman,129.55,147.42,102.06,158.76,408.23,Single-ply,SBD,M,
Boys,124.74+,DQ,Gavin Emerson,Gainesville,136.62,229.06,147.42,,,Single-ply,SBD,M,
Boys,124.74+,DQ,Wade Graves,Whitesboro,135.99,167.83,,,,Single-ply,SBD,M,
