Name,Sex,Event,Equipment,Division,BodyweightKg,WeightClassKg,Squat1Kg,Squat2Kg,Squat3Kg,Best3SquatKg,Bench1Kg,Bench2Kg,Bench3Kg,Best3BenchKg,Deadlift1Kg,Deadlift2Kg,Deadlift3Kg,Best3DeadliftKg,TotalKg,Place,State
Abhinay Settipalli,M,SBD,Raw,M-C-Open,65.8,66,175,-190,-205,175,80,87.5,92.5,92.5,-220,-235,,,,DQ,YNE
Aiden Seargeant,M,SBD,Raw,M-C-Open,81.1,83,180,190,-200,190,100,105,110,110,180,200,205,205,505,1,YNE
Alan Robson,M,SBD,Single-ply,M-E-Open,85.8,93,-120,-120,120,120,110,-120,-120,110,-180,-180,180,180,410,1,YNE
Brad Brooks,M,SBD,Raw,M-C-G,80.6,83,165,175,-182.5,175,95,100,-105,100,215,235,-252.5,235,510,G,
Brandon Barr,M,SBD,Raw,M-C-Open,82.8,83,165,172.5,-180,172.5,85,92.5,-100,92.5,185,-197.5,197.5,197.5,462.5,3,YNE
Charlie Naylor,M,SBD,Raw,M-C-Open,93.8,105,130,137.5,147.5,147.5,92.5,97.5,102.5,102.5,-165,-165,165,165,415,8,YNE
Chris Downey,M,SBD,Raw,M-C-Open,80.8,83,150,157.5,162.5,162.5,80,85,-90,85,200,210,220,220,467.5,2,YNE
Chris Herdman,M,SBD,Raw,M-C-Open,104.4,105,200,220,222.5,222.5,150,170,177.5,177.5,250,-280,285,285,685,1,YNE
Christian Vieira,M,SBD,Raw,M-C-Open,78.4,83,115,122.5,130,130,95,100,105,105,150,160,170,170,405,5,YNE
Conor Ruane,M,SBD,Raw,M-C-Open,90.4,93,-182.5,-192.5,192.5,192.5,105,112.5,-117.5,112.5,220,232.5,247.5,247.5,552.5,1,YNE
Daniel Tonge,M,SBD,Raw,M-C-Open,102.8,105,165,170,177.5,177.5,95,100,107.5,107.5,195,205,215,215,500,5,YNE
Daniel Walton,M,SBD,Raw,M-C-Open,104.4,105,200,210,215,215,150,160,,160,260,280,-290,280,655,2,YNE
Dylan Hurdus,M,SBD,Raw,M-C-Open,99.6,105,140,152.5,165,165,85,95,105,105,190,202.5,212.5,212.5,482.5,6,YNE
Dylan Wilson #1,M,SBD,Raw,M-C-G,62.6,66,85,90,95,95,62.5,-67.5,70,70,100,105,110,110,275,G,
Gavin Maxwell,M,SBD,Raw,M-C-Open,101.6,105,170,182.5,190,190,-127.5,135,-140,135,225,-235,235,235,560,4,YNE
Isaac Mallinson,M,SBD,Raw,M-C-G,64.8,66,122.5,127.5,135,135,82.5,87.5,90,90,150,165,170,170,395,G,
Joe Sherwood,M,SBD,Single-ply,M-E-Open,69.2,74,180,190,-200,190,92.5,97.5,102.5,102.5,182.5,195,-205,195,487.5,1,YNE
John Harker,M,SBD,Raw,M-C-Open,102,105,-145,145,-152.5,145,95,102.5,-107.5,102.5,185,190,-195,190,437.5,7,YNE
Joshua Adekoya,M,SBD,Raw,M-C-G,74.4,83,195,207.5,220,220,105,110,115,115,210,225,-240,225,560,G,
Kunwu Peng,M,SBD,Raw,M-C-Open,75.6,83,155,165,175,175,87.5,95,100,100,165,175,185,185,460,4,YNE
Liam Murphy,M,SBD,Raw,M-C-Open,92.2,93,125,135,142.5,142.5,62.5,70,75,75,135,147.5,160,160,377.5,3,YNE
Lloyd Taylor,M,SBD,Raw,M-C-G,65,66,140,147.5,-155,147.5,112.5,120,-127.5,120,185,-200,200,200,467.5,G,
Marlon Wragg,M,SBD,Raw,M-C-G,102.2,105,255,257.5,-270,257.5,-150,160,-165,160,-260,280,-290,280,697.5,G,YNE
Mitch Weiner,M,SBD,Raw,M-C-Open,58.8,59,120,127.5,135,135,85,90,92.5,92.5,140,150,160,160,387.5,1,YNE
Nathan Smith #1,M,SBD,Raw,M-C-G,64.6,66,120,125,130,130,87.5,92.5,-100,92.5,175,187.5,-200,187.5,410,G,
Richard Pryer,M,SBD,Raw,M-C-Open,103.2,105,205,220,-227.5,220,122.5,130,135,135,230,245,-250,245,600,3,YNE
Ricky Foulkes,M,SBD,Raw,M-C-G,92.8,93,97.5,102.5,107.5,107.5,77.5,-82.5,82.5,82.5,130,140,-147.5,140,330,G,
Scott Fazakerley,M,SBD,Raw,M-C-Open,86,93,160,167.5,175,175,115,117.5,-120,117.5,190,200,210,210,502.5,2,YNE
Stuart Thompson #2,M,SBD,Raw,M-C-G,102.4,105,170,-180,-180,170,135,142.5,-145,142.5,220,230,235,235,547.5,G,
Wayne Barber,M,SBD,Raw,M-C-Open,73.6,74,162.5,172.5,180,180,110,115,120,120,190,-202.5,210,210,510,1,YNE
Carole O'Neil,F,SBD,Raw,F-C-Open,80.8,84,95,105,-115,105,67.5,70,75,75,-120,120,130,130,310,2,YNE
Claudia Jenkinson,F,SBD,Raw,F-C-Open,54.8,57,72.5,80,85,85,42.5,47.5,52.5,52.5,77.5,85,92.5,92.5,230,2,YNE
Ella Morgan,F,SBD,Raw,F-C-Open,62.8,63,87.5,-95,-95,87.5,45,47.5,50,50,110,117.5,125,125,262.5,2,YNE
Emma Ladlow,F,SBD,Raw,F-C-Open,68.2,72,70,75,80,80,40,45,-47.5,45,100,110,117.5,117.5,242.5,1,YNE
Gemma Surtees,F,SBD,Raw,F-C-G,64.8,72,115,122.5,127.5,127.5,62.5,67.5,-70,67.5,132.5,142.5,150,150,345,G,YNE
Jo Beck,F,SBD,Single-ply,F-E-Open,70.8,72,105,110,115,115,62.5,65,67.5,67.5,130,137.5,-146,137.5,320,1,YNE
Joely Hawke,F,SBD,Raw,F-C-Open,55.2,57,80,87.5,95,95,45,47.5,50,50,100,107.5,115,115,260,1,YNE
Josephine Penfold,F,SBD,Raw,F-C-G,61.2,63,-100,-100,100,100,57.5,60,65,65,120,130,140,140,305,G,
Justine Lee,F,SBD,Raw,F-C-Open,49.5,52,77.5,85,90,90,42.5,45,47.5,47.5,110,112.5,-120,112.5,250,1,YNE
Kate McCullough Young,F,SBD,Raw,F-C-Open,60.4,63,-107.5,107.5,112.5,112.5,67.5,72.5,77.5,77.5,125,132.5,140,140,330,1,YNE
Katie Travers,F,SBD,Raw,F-C-G,56.4,57,87.5,92.5,97.5,97.5,37.5,40,42.5,42.5,120,130,140,140,280,G,
Rachel Doughty,F,SBD,Raw,F-C-Open,75.8,84,55,60,65,65,25,30,35,35,72.5,80,85,85,185,3,YNE
Rebecca Bradshaw,F,SBD,Raw,F-C-Open,60.6,63,65,70,75,75,37.5,42.5,47.5,47.5,85,92.5,100,100,222.5,3,YNE
Rosie Burlison,F,SBD,Raw,F-C-G,70.4,72,140,-147.5,-147.5,140,60,65,70,70,150,157.5,-167.5,157.5,367.5,G,
Serena Cabry,F,SBD,Raw,F-C-Open,57.8,63,60,-65,67.5,67.5,45,50,55,55,77.5,82.5,87.5,87.5,210,4,YNE
Stephanie Carrillo-Chavez,F,SBD,Raw,F-C-Open,78.2,84,-125,125,132.5,132.5,95,100,105,105,140,147.5,-152.5,147.5,385,1,YNE
Sue Hollands,F,SBD,Single-ply,F-E-Open,86.8,84+,160,-165,,160,80,85,90,90,150,157.5,165,165,415,1,YNE
