Division,WeightClassKg,Place,Name,Team,BodyweightKg,Best3SquatKg,Best3BenchKg,Best3DeadliftKg,TotalKg,Equipment,Event,Sex
Boys,51.71,1,Alex Le,Palacios,45.9,83.91,52.16,95.25,231.33,Single-ply,SBD,M
Boys,51.71,2,Kaijuan Mull,Vanderbilt Industrial,46.36,68.04,38.56,95.25,201.85,Single-ply,SBD,M
Boys,51.71,3,Josue Gonzalez,Cleveland,50.35,56.7,61.23,83.91,201.85,Single-ply,SBD,M
Boys,55.79,1,Elisha Garcia,Palacios,55.25,102.06,52.16,120.2,274.42,Single-ply,SBD,M
Boys,55.79,2,Ean Cheerne,Vanderbilt Industrial,55.7,86.18,61.23,120.2,267.62,Single-ply,SBD,M
Boys,55.79,3,Christopher Rios,Cleveland,52.89,92.99,40.82,102.06,235.87,Single-ply,SBD,M
Boys,59.87,1,Tyrin Brito,Ganado,57.61,129.27,56.7,145.15,331.12,Single-ply,SBD,M
Boys,59.87,2,Evan Salazar,Cleveland,58.06,97.52,77.11,149.69,324.32,Single-ply,SBD,M
Boys,59.87,3,Haydynn Nguyen,Palacios,56.43,88.45,47.63,102.06,238.14,Single-ply,SBD,M
Boys,59.87,4,Josh Gomez,Louise,55.97,92.99,52.16,83.91,229.06,Single-ply,SBD,M
Boys,59.87,DQ,Dillon Long,El Maton Tidehaven,59.87,,,,,Single-ply,SBD,M
Boys,67.13,1,Orlando Moreno,Bay City,65.41,183.7,115.67,176.9,476.27,Single-ply,SBD,M
Boys,67.13,2,Isaac Garza,Ganado,64.77,154.22,102.06,174.63,430.91,Single-ply,SBD,M
Boys,67.13,3,Cole Brogger,Vanderbilt Industrial,61.33,151.95,81.65,158.76,392.36,Single-ply,SBD,M
Boys,67.13,4,Kevion Terrell,Victoria St. Joseph,60.33,138.35,92.99,151.95,383.29,Single-ply,SBD,M
Boys,67.13,5,Edwin Uribe,Cleveland,65.05,120.2,79.38,154.22,353.8,Single-ply,SBD,M
Boys,67.13,6,Jesse Cornish,Vanderbilt Industrial,66.5,115.67,70.31,113.4,299.37,Single-ply,SBD,M
Boys,67.13,DQ,Emmanuel Ledezma,Bay City,67.13,,,,,Single-ply,SBD,M
Boys,67.13,DQ,Jose Martinez #10,El Maton Tidehaven,67.13,,,,,Single-ply,SBD,M
Boys,67.13,DQ,Elmer Perez,El Maton Tidehaven,66.68,,,,,Single-ply,SBD,M
Boys,74.84,1,Daron Moncevais,Palacios,74.39,133.81,113.4,170.1,417.3,Single-ply,SBD,M
Boys,74.84,2,Steven Figueroa,Cleveland,67.77,120.2,72.57,149.69,342.46,Single-ply,SBD,M
Boys,74.84,3,Jorge Carcamo,Cleveland,74.48,142.88,45.36,149.69,337.93,Single-ply,SBD,M
Boys,74.84,4,Ricardo Luna,Vanderbilt Industrial,70.58,122.47,83.91,122.47,328.85,Single-ply,SBD,M
Boys,74.84,5,Tony Arteaga,Palacios,67.59,102.06,79.38,136.08,317.51,Single-ply,SBD,M
Boys,74.84,6,Jackson Fluitt,Vanderbilt Industrial,74.48,102.06,65.77,127.01,294.84,Single-ply,SBD,M
Boys,74.84,DQ,Leo Torres,Louise,74.84,,,,,Single-ply,SBD,M
Boys,74.84,DQ,Carlos Rubio,El Maton Tidehaven,71.76,147.42,,,,Single-ply,SBD,M
Boys,74.84,DQ,Anthony Galvez,Bay City,70.67,70.31,,,,Single-ply,SBD,M
Boys,74.84,DQ,Alex Bonorden,Victoria St. Joseph,71.21,,,,,Single-ply,SBD,M
Boys,82.1,1,Tre Evans,Edna,77.47,195.04,136.08,213.19,544.31,Single-ply,SBD,M
Boys,82.1,2,Jonathan Pesina,Bay City,78.02,192.78,120.2,181.44,494.42,Single-ply,SBD,M
Boys,82.1,3,Payton Terrell,Victoria St. Joseph,78.02,156.49,117.93,163.29,437.72,Single-ply,SBD,M
Boys,82.1,4,Nathan Nguyen #3,Palacios,77.38,115.67,68.04,133.81,317.51,Single-ply,SBD,M
Boys,82.1,5,Derek Hodges,Cleveland,78.29,102.06,79.38,129.27,310.71,Single-ply,SBD,M
Boys,82.1,6,Aaron Gomez,Louise,81.37,106.59,68.04,124.74,299.37,Single-ply,SBD,M
Boys,82.1,7,Johnathan Garcia,Vanderbilt Industrial,78.11,111.13,65.77,120.2,297.1,Single-ply,SBD,M
Boys,89.81,1,Aaron Sims,Cleveland,89.54,190.51,92.99,192.78,476.27,Single-ply,SBD,M
Boys,89.81,2,Zach Pierce,El Maton Tidehaven,89.81,165.56,83.91,206.38,455.86,Single-ply,SBD,M
Boys,89.81,3,Aaron Mata,Ganado,84.1,161.03,90.72,195.04,446.79,Single-ply,SBD,M
Boys,89.81,4,Caleb Limon,Victoria St. Joseph,87.72,161.03,102.06,181.44,444.52,Single-ply,SBD,M
Boys,89.81,5,Blaine Allen,Vanderbilt Industrial,89.27,147.42,97.52,142.88,387.82,Single-ply,SBD,M
Boys,89.81,6,Chris Bethany,Vanderbilt Industrial,86.73,127.01,88.45,142.88,358.34,Single-ply,SBD,M
Boys,89.81,7,Hayden Land,Victoria St. Joseph,83.91,106.59,65.77,136.08,308.44,Single-ply,SBD,M
Boys,89.81,DQ,Saul Sanchez,Palacios,89.81,,,,,Single-ply,SBD,M
Boys,89.81,DQ,Isaiah Estrada,Victoria St. Joseph,85.46,179.17,,,,Single-ply,SBD,M
Boys,89.81,DQ,David Zavala,Palacios,82.92,,,,,Single-ply,SBD,M
Boys,99.79,1,Marcos Hernandez,Cleveland,99.52,201.85,117.93,206.38,526.17,Single-ply,SBD,M
Boys,99.79,2,Jose Sanchez,Cleveland,90.99,192.78,113.4,201.85,508.02,Single-ply,SBD,M
Boys,99.79,3,Noah Moreno,Palacios,93.71,151.95,122.47,190.51,464.93,Single-ply,SBD,M
Boys,99.79,4,Blayne Moreland,Vanderbilt Industrial,99.43,174.63,115.67,174.63,464.93,Single-ply,SBD,M
Boys,99.79,DQ,Micah Coleman,El Maton Tidehaven,99.79,,,,,Single-ply,SBD,M
Boys,99.79,DQ,Cameron Antwine,Edna,99.79,,,,,Single-ply,SBD,M
Boys,109.77,1,Tristan Bermea,Vanderbilt Industrial,105.96,215.46,151.95,215.46,582.87,Single-ply,SBD,M
Boys,109.77,2,Ivan Dewitt,Bay City,109.77,192.78,111.13,158.76,462.66,Single-ply,SBD,M
Boys,109.77,3,Nate Beck,Victoria St. Joseph,106.14,142.88,97.52,170.1,410.5,Single-ply,SBD,M
Boys,109.77,DQ,Michael Galvez,Bay City,109.77,,,,,Single-ply,SBD,M
Boys,124.74,1,Sergio Calvo,Victoria St. Joseph,121.11,190.51,115.67,197.31,503.49,Single-ply,SBD,M
Boys,124.74,2,Jerry Johnson,El Maton Tidehaven,119.57,199.58,108.86,170.1,478.54,Single-ply,SBD,M
Boys,124.74,3,Jaden Barnett,Cleveland,118.66,183.7,83.91,192.78,460.4,Single-ply,SBD,M
Boys,124.74,4,Ethan Carr,Palacios,115.76,174.63,122.47,156.49,453.59,Single-ply,SBD,M
Boys,124.74,5,Dean Ramsey,Ganado,118.12,147.42,92.99,172.37,412.77,Single-ply,SBD,M
Boys,124.74,6,Chris Vasquez,Louise,116.21,158.76,83.91,140.61,383.29,Single-ply,SBD,M
Boys,124.74,7,Ellian Perez,Palacios,113.31,147.42,79.38,115.67,342.46,Single-ply,SBD,M
Boys,124.74,DQ,Alex Campuzano,Ganado,124.74,,,,,Single-ply,SBD,M
Boys,124.74,DQ,Gabriel Medina,Victoria St. Joseph,111.31,,,,,Single-ply,SBD,M
Boys,124.74+,1,Joseph Cotie,Cleveland,130.27,249.48,183.7,219.99,653.17,Single-ply,SBD,M
Boys,124.74+,2,Keegan Carillo,El Maton Tidehaven,136.89,204.12,113.4,181.44,498.95,Single-ply,SBD,M
Boys,124.74+,DQ,Jordan Pesina,Bay City,129.36,,,,,Single-ply,SBD,M
