Name,Equipment,Sex,BirthDate,BodyweightKg,Age,Division,WeightClassKg,Country,Squat1Kg,Squat2Kg,Squat3Kg,Best3SquatKg,Squat4Kg,Bench1Kg,Bench2Kg,Bench3Kg,Best3BenchKg,Bench4Kg,Deadlift1Kg,Deadlift2Kg,Deadlift3Kg,Best3DeadliftKg,Deadlift4Kg,TotalKg,Event,Place
Natalia Rojas,Wraps,F,1996-06-30,42.9,25,Open,44,Argentina,80,90,-95,90,,35,40,-42.5,40,,80,-90,-100,80,,210,SBD,1
Adriana Sejas,Wraps,F,2005-04-09,44.6,16,Open,48,Bolivia,75,-77.5,-82.5,75,,30,32.5,35,35,,80,87.5,-95,87.5,,197.5,SBD,2
Adriana Sejas,Wraps,F,2005-04-09,44.6,16,Teen 16-17,48,Bolivia,75,-77.5,-82.5,75,,30,32.5,35,35,,80,87.5,-95,87.5,,197.5,SBD,1
Carolina González De León,Wraps,F,1985-05-08,47.2,36,Open,48,Argentina,150,160,-167.5,160,,70,72.5,75,75,,142.5,147.5,152.5,152.5,,387.5,SBD,1
Noemi Anaquin,Wraps,F,1992-08-19,51.3,29,Open,52,Argentina,130,-142.5,145,145,,65,70,75,75,,130,142.5,-150,142.5,,362.5,SBD,1
Desiree Garcia,Wraps,F,2000-01-23,53.4,21,Open,56,Bolivia,-75,77.5,-85,77.5,,40,42.5,-45,42.5,,105,112.5,-120,112.5,,232.5,SBD,2
Desiree Garcia,Wraps,F,2000-01-23,53.4,21,Juniors 20-23,56,Bolivia,-75,77.5,-85,77.5,,40,42.5,-45,42.5,,105,112.5,-120,112.5,,232.5,SBD,1
Eliana Ocampo,Wraps,F,1986-10-13,54.9,35,Open,56,Argentina,160,-170,180.5,180.5,,75,82.5,85,85,,155,165,-177.5,165,,430.5,SBD,1
Solana Chasampi,Wraps,F,1998-02-28,59.2,23,Juniors 20-23,60,Argentina,147.5,155,157.5,157.5,,65,70,75,75,,172.5,187.5,-201,187.5,,420,SBD,1
Solana Chasampi,Wraps,F,1998-02-28,59.2,23,Open,60,Argentina,147.5,155,157.5,157.5,,65,70,75,75,,172.5,187.5,-201,187.5,,420,SBD,1
Yuliana Orellana,Wraps,F,2002-05-25,71.1,19,Teen 18-19,75,Bolivia,130,140,-150,140,,60,-65,-67.5,60,,130,-140,140,140,-155.5,340,SBD,1
Yuliana Orellana,Wraps,F,2002-05-25,71.1,19,Open,75,Bolivia,130,140,-150,140,,60,-65,-67.5,60,,130,-140,140,140,-155.5,340,SBD,2
Maribel Medina,Wraps,F,1993-09-17,66.9,28,Open,67.5,Argentina,160,170,-180,170,,67.5,75,-80,75,,170,180,-192.5,180,,425,SBD,1
Marta Vega,Wraps,F,1981-07-09,66.3,40,Masters 40-49,67.5,Argentina,-150,150,165,165,,70,72.5,75,75,,135,140,145,145,,385,SBD,1
Roseneide Barbosa Ramos,Wraps,F,1972-01-15,70.2,49,Masters 40-49,75,Brazil,-80,80,90,90,,30,-35,37.5,37.5,,90,95,-105,95,,222.5,SBD,2
Lorena Rojas,Wraps,F,1979-03-06,68.9,42,Masters 40-49,75,Argentina,-180,180,-192.5,180,,70,80,-90,80,,180,190,200,200,,460,SBD,1
Paula Stancati,Wraps,F,1998-09-29,81.3,23,Juniors 20-23,82.5,Argentina,150,160,170,170,,67.5,72.5,-77.5,72.5,,140,150,160,160,,402.5,SBD,1
Marta Vega,Wraps,F,1981-07-09,66.3,40,Open,67.5,Argentina,-150,150,165,165,,70,72.5,75,75,,135,140,145,145,,385,SBD,2
Roseneide Barbosa Ramos,Wraps,F,1972-01-15,70.2,49,Open,75,Brazil,-80,80,90,90,,30,-35,37.5,37.5,,90,95,-105,95,,222.5,SBD,3
Lorena Rojas,Wraps,F,1979-03-06,68.9,42,Open,75,Argentina,-180,180,-192.5,180,,70,80,-90,80,,180,190,200,200,,460,SBD,1
Paula Stancati,Wraps,F,1998-09-29,81.3,23,Open,82.5,Argentina,150,160,170,170,,67.5,72.5,-77.5,72.5,,140,150,160,160,,402.5,SBD,1
Adriana Jorgensen Ibañez,Wraps,F,1993-09-02,77.1,28,Open,82.5,Bolivia,-175,-175,175,175,,-55,55,62.5,62.5,,150,160,-165,160,,397.5,SBD,2
Vanessa Leones,Wraps,F,1979-04-24,87.1,42,Masters 40-49,90,Argentina,165,175,190,190,,90,97.5,-102.5,97.5,,165,170,180,180,,467.5,SBD,1
Maria Fernanda Godoy Cruz,Multi-ply,F,1979-12-11,86.5,41,Masters 40-49,90,Argentina,188,200,-205,200,,70,75.5,80,80,85,155,170.5,180,180,,460,SBD,1
Ernesto Llul,Wraps,M,2003-11-04,65.7,18,Teen 18-19,67.5,Argentina,-155,155,-167.5,155,,80,90,-100,90,,160,170,-180,170,,415,SBD,2
Andres Tang,Wraps,M,2002-05-30,65.7,19,Teen 18-19,67.5,Argentina,170,177.5,185,185,,95,100,105,105,,195,205,-215,205,,495,SBD,1
Santiago Piñero,Wraps,M,2000-08-14,65.9,21,Juniors 20-23,67.5,Argentina,175,180,185,185,,85,92.5,-100,92.5,,195,207.5,212.5,212.5,,490,SBD,1
Vanessa Leones,Wraps,F,1979-04-24,87.1,42,Open,90,Argentina,165,175,190,190,,90,97.5,-102.5,97.5,,165,170,180,180,,467.5,SBD,1
Maria Fernanda Godoy Cruz,Multi-ply,F,1979-12-11,86.5,41,Open,90,Argentina,188,200,-205,200,,70,75.5,80,80,85,155,170.5,180,180,,460,SBD,1
Ernesto Llul,Wraps,M,2003-11-04,65.7,18,Open,67.5,Argentina,-155,155,-167.5,155,,80,90,-100,90,,160,170,-180,170,,415,SBD,4
Andres Tang,Wraps,M,2002-05-30,65.7,19,Open,67.5,Argentina,170,177.5,185,185,,95,100,105,105,,195,205,-215,205,,495,SBD,2
Santiago Piñero,Wraps,M,2000-08-14,65.9,21,Open,67.5,Argentina,175,180,185,185,,85,92.5,-100,92.5,,195,207.5,212.5,212.5,,490,SBD,3
Pablo Gomez,Wraps,M,1989-07-04,67,32,Open,67.5,Argentina,205,-225,-240.5,205,,97.5,107.5,-112.5,107.5,,197.5,210,-220,210,,522.5,SBD,1
Tobias Caltabiano,Wraps,M,2005-07-11,72.5,16,Teen 16-17,75,Argentina,170,177.5,187.5,187.5,,80,87.5,-92.5,87.5,,200,212.5,222.5,222.5,-233,497.5,SBD,1
Mateo Santin,Wraps,M,2002-01-24,73.2,19,Teen 18-19,75,Argentina,-222.5,222.5,230,230,,125,132.5,137.5,137.5,,-200,205,215,215,,582.5,SBD,1
Benjamin Choque,Wraps,M,1998-07-06,74.6,23,Juniors 20-23,75,Bolivia,212.5,222.5,230,230,,115,-120,122.5,122.5,,215,230,-242.5,230,,582.5,SBD,1
Tobias Caltabiano,Wraps,M,2005-07-11,72.5,16,Open,75,Argentina,170,177.5,187.5,187.5,,80,87.5,-92.5,87.5,,200,212.5,222.5,222.5,-233,497.5,SBD,4
Mateo Santin,Wraps,M,2002-01-24,73.2,19,Open,75,Argentina,-222.5,222.5,230,230,,125,132.5,137.5,137.5,,-200,205,215,215,,582.5,SBD,2
Benjamin Choque,Wraps,M,1998-07-06,74.6,23,Open,75,Bolivia,212.5,222.5,230,230,,115,-120,122.5,122.5,,215,230,-242.5,230,,582.5,SBD,3
Luciano Escolano,Wraps,M,1997-01-22,72.6,24,Open,75,Argentina,235,-245,247.5,247.5,,130,137.5,-140,137.5,,240,252.5,-260,252.5,,637.5,SBD,1
Ramiro Marengo,Wraps,M,2007-03-28,81.4,14,Teen 13-15,82.5,Argentina,157.5,-165,165,165,,67.5,70,-75,70,,80,,,80,,315,SBD,1
Luca Lantella,Wraps,M,2001-05-02,80.4,20,Juniors 20-23,82.5,Argentina,250,265,280,280,,115,-125,125,125,,200,207.5,210,210,,615,SBD,1
Leandro Correa,Wraps,M,1979-03-02,81.7,42,Masters 40-49,82.5,Argentina,-225,-235,235,235,,135,142.5,147.5,147.5,,250,-260,260,260,,642.5,SBD,1
Gianfranco Slepetis,Wraps,M,2001-05-02,89,20,Juniors 20-23,90,Argentina,285,-305,310,310,,155,165,170,170,,-285,295,305,305,,785,SBD,1
Ramiro Marengo,Wraps,M,2007-03-28,81.4,14,Open,82.5,Argentina,157.5,-165,165,165,,67.5,70,-75,70,,80,,,80,,315,SBD,3
Luca Lantella,Wraps,M,2001-05-02,80.4,20,Open,82.5,Argentina,250,265,280,280,,115,-125,125,125,,200,207.5,210,210,,615,SBD,2
Leandro Correa,Wraps,M,1979-03-02,81.7,42,Open,82.5,Argentina,-225,-235,235,235,,135,142.5,147.5,147.5,,250,-260,260,260,,642.5,SBD,1
Gianfranco Slepetis,Wraps,M,2001-05-02,89,20,Open,90,Argentina,285,-305,310,310,,155,165,170,170,,-285,295,305,305,,785,SBD,1
Cicero Manguoli Nicolini,Wraps,M,1996-09-27,88.4,25,Open,90,Brazil,-175,-187.5,187.5,187.5,,125,-135,-135,125,,215,225,-230,225,,537.5,SBD,5
Diego Heredia Glasinovic,Wraps,M,1992-05-01,88.1,29,Open,90,Bolivia,215,-230,235,235,,115,127.5,135,135,,225,245,260,260,,630,SBD,3
Roberto Guzman,Wraps,M,1996-02-16,87.4,25,Open,90,Bolivia,295,-310,310,310,,-152.5,155,162.5,162.5,,295,302.5,-312.5,302.5,,775,SBD,2
Sergio Kimmel,Wraps,M,1979-01-02,89.9,42,Masters 40-49,90,Argentina,220,240,250,250,,120,130,-137.5,130,,210,230,250,250,,630,SBD,1
Sergio Kimmel,Wraps,M,1979-01-02,89.9,42,Open,90,Argentina,220,240,250,250,,120,130,-137.5,130,,210,230,250,250,,630,SBD,4
Juan Ales,Wraps,M,1957-03-09,83.6,64,Masters 60-69,90,Argentina,175,185,-200,185,,110,120,127.5,127.5,,170,185,191,191,,503.5,SBD,1
Juan Ales,Wraps,M,1957-03-09,83.6,64,Open,90,Argentina,175,185,-200,185,,110,120,127.5,127.5,,170,185,191,191,,503.5,SBD,6
Mateo Codesido,Wraps,M,1998-09-21,98.4,23,Juniors 20-23,100,Argentina,245,260,270,270,,140,150,-157.5,150,,250,262.5,277.5,277.5,,697.5,SBD,2
Fabricio Fantozzi,Wraps,M,1998-09-18,100,23,Juniors 20-23,100,Argentina,240,-255,260,260,,140,150,152.5,152.5,,260,272.5,287.5,287.5,,700,SBD,1
Mateo Codesido,Wraps,M,1998-09-21,98.4,23,Open,100,Argentina,245,260,270,270,,140,150,-157.5,150,,250,262.5,277.5,277.5,,697.5,SBD,3
Fabricio Fantozzi,Wraps,M,1998-09-18,100,23,Open,100,Argentina,240,-255,260,260,,140,150,152.5,152.5,,260,272.5,287.5,287.5,,700,SBD,2
Guido Gola,Wraps,M,1996-11-05,96.8,25,Open,100,Argentina,-280,290,300,300,,175,185,190,190,,270,290,300,300,,790,SBD,1
Javier Viveros,Wraps,M,1997-09-24,96.6,24,Open,100,Bolivia,-265,-265,265,265,,127.5,130,135,135,,-245,245,-247.5,245,,645,SBD,4
Pedro Tadeu Leal,Wraps,M,1983-10-28,98.6,38,Open,100,Brazil,280,-290,-290,280,,180,190,-195,190,,-245,-245,-247.5,,,,SBD,DQ
Gilberto Pereira da Silva Junior,Multi-ply,M,1986-08-23,95.5,35,Open,100,Brazil,280,300,-310,300,,-242.5,242.5,250,250,,-260,-260,-260,,,,SBD,DQ
Hernan D. Concilo,Wraps,M,1981-06-29,98.7,40,Masters 40-49,100,Argentina,215,230,-245,230,,130,140,-145,140,,235,250,-255,250,,620,SBD,1
Hernan D. Concilo,Wraps,M,1981-06-29,98.7,40,Open,100,Argentina,215,230,-245,230,,130,140,-145,140,,235,250,-255,250,,620,SBD,5
Wolfgang Alt,Wraps,M,1960-09-27,94.8,61,Masters 60-69,100,Brazil,160,-180,180,180,,100,120,,120,,200,,,200,,500,SBD,1
Wolfgang Alt,Wraps,M,1960-09-27,94.8,61,Open,100,Brazil,160,-180,180,180,,100,120,,120,,200,,,200,,500,SBD,6
Lautaro Antonuccio,Wraps,M,2002-02-05,108.6,19,Teen 18-19,110,Argentina,265,280,300,300,,125,137.5,145,145,,252.5,272.5,287.5,287.5,-300.5,732.5,SBD,1
Federico Meijone,Wraps,M,1998-06-25,109.3,23,Juniors 20-23,110,Argentina,345,360,370,370,,185,195,-200,195,,300,310,-320,310,,875,SBD,1
Mauro Spinardi,Wraps,M,1980-02-28,109.9,41,Masters 40-49,110,Argentina,-345,360,375,375,,200,210,,210,,310,325,-340,325,,910,SBD,1
Juan Manavella,Wraps,M,1977-01-01,109,44,Masters 40-49,110,Argentina,270,285,295,295,,145,155,165,165,,260,-275,,260,,720,SBD,2
Lautaro Antonuccio,Wraps,M,2002-02-05,108.6,19,Open,110,Argentina,265,280,300,300,,125,137.5,145,145,,252.5,272.5,287.5,287.5,-300.5,732.5,SBD,3
Federico Meijone,Wraps,M,1998-06-25,109.3,23,Open,110,Argentina,345,360,370,370,,185,195,-200,195,,300,310,-320,310,,875,SBD,2
Mauro Spinardi,Wraps,M,1980-02-28,109.9,41,Open,110,Argentina,-345,360,375,375,,200,210,,210,,310,325,-340,325,,910,SBD,1
Juan Manavella,Wraps,M,1977-01-01,109,44,Open,110,Argentina,270,285,295,295,,145,155,165,165,,260,-275,,260,,720,SBD,4
Serafim Rocha,Wraps,M,1948-04-27,106.6,73,Masters 70-79,110,Argentina,80,-100,-120,80,,90,100,-105,100,,120,140,150,150,,330,SBD,1
Serafim Rocha,Wraps,M,1948-04-27,106.6,73,Open,110,Argentina,80,-100,-120,80,,90,100,-105,100,,120,140,150,150,,330,SBD,5
Facundo Estala,Wraps,M,1993-03-12,123.8,28,Open,125,Argentina,250,270,285,285,,150,160,-165,160,,270,290,305,305,,750,SBD,1
Otávio Augusto de Almeida Barcelos,Wraps,M,1995-08-18,110.8,26,Open,125,Brazil,215,-230,-235,215,,145,152.5,160,160,,215,230,-240,230,,605,SBD,3
Mauricio Marques,Wraps,M,1978-04-12,118.6,43,Masters 40-49,125,Brazil,230,245,260,260,,150,160,-170,160,,230,240,-245,240,,660,SBD,1
Joaquín Díaz,Wraps,M,2002-01-25,139.9,19,Teen 18-19,140,Argentina,250,270,-280,270,,130,140,-155,140,,200,,,200,,610,SBD,1
Facundo Giacche,Wraps,M,1998-01-21,132.1,23,Juniors 20-23,140,Argentina,240,260,270,270,,170,180,-185,180,,250,262.5,280,280,,730,SBD,1
Mauricio Marques,Wraps,M,1978-04-12,118.6,43,Open,125,Brazil,230,245,260,260,,150,160,-170,160,,230,240,-245,240,,660,SBD,2
Joaquín Díaz,Wraps,M,2002-01-25,139.9,19,Open,140,Argentina,250,270,-280,270,,130,140,-155,140,,200,,,200,,610,SBD,3
Facundo Giacche,Wraps,M,1998-01-21,132.1,23,Open,140,Argentina,240,260,270,270,,170,180,-185,180,,250,262.5,280,280,,730,SBD,2
Alexis Dalessandro,Wraps,M,1995-05-07,130.3,26,Open,140,Argentina,300,-315,315,315,,170,180,-185,180,,310,-320,,310,,805,SBD,1
Mario Martinez,Wraps,M,1979-11-07,140.7,42,Masters 40-49,140+,Argentina,260,-280,-280,260,,160,-165,-165,160,,200,-255,-255,200,,620,SBD,1
Mario Martinez,Wraps,M,1979-11-07,140.7,42,Open,140+,Argentina,260,-280,-280,260,,160,-165,-165,160,,200,-255,-255,200,,620,SBD,1
Soledad Gambarte,Raw,F,1997-01-15,63.5,24,Open,67.5,Argentina,,,,,,62.5,70,75,75,,,,,,,75,B,1
Ana Castro,Multi-ply,F,1994-01-20,66,27,Open,67.5,Argentina,,,,,,77.5,83,-87.5,83,,,,,,,83,B,1
Maximiliano Odino,Raw,M,1977-01-13,80.1,44,Masters 40-49,82.5,Argentina,,,,,,165,-175,-175,165,,,,,,,165,B,1
Carlos Porta,Raw,M,1933-02-03,80.4,88,Open,82.5,Argentina,,,,,,67.5,72.5,75,75,,,,,,,75,B,3
Facundo Paz,Raw,M,1974-12-05,88,46,Open,90,Argentina,,,,,,175,185,-187.5,185,,,,,,,185,B,1
Maximiliano Odino,Raw,M,1977-01-13,80.1,44,Open,82.5,Argentina,,,,,,165,-175,-175,165,,,,,,,165,B,1
Carlos Porta,Raw,M,1933-02-03,80.4,88,Open,82.5,Argentina,,,,,,67.5,72.5,75,75,,,,,,,75,B,4
Facundo Paz,Raw,M,1974-12-05,88,46,Open,90,Argentina,,,,,,175,185,-187.5,185,,,,,,,185,B,2
Mario Garcia,Multi-ply,M,1992-10-20,86.2,29,Open,90,Argentina,,,,,,180,-202.5,-202.5,180,,,,,,,180,B,1
Lucas Basualdo,Raw,M,1981-02-20,98,40,Masters 40-49,100,Argentina,,,,,,100,107.5,112.5,112.5,,,,,,,112.5,B,2
José Eduardo Leles,Raw,M,1977-04-14,81.3,44,Masters 40-49,82.5,Brazil,,,,,,100,110,-118,110,,,,,,,110,B,2
Pablo Aurellio,Raw,M,1978-12-22,97.9,42,Masters 40-49,100,Argentina,,,,,,180,190,-200,190,,,,,,,190,B,1
Wolfgang Alt,Raw,M,1960-09-27,94.8,61,Masters 60-69,100,Brazil,,,,,,100,120,,120,,,,,,,120,B,1
Rodrigo Antônio Gonçalves,Multi-ply,M,1981-04-16,100.1,40,Masters 40-49,110,Brazil,,,,,,-200,200,,200,,,,,,,200,B,1
Nestor Gonzalez #1,Raw,M,1970-03-06,99,51,Masters 50-59,100,Argentina,,,,,,115,127.5,132.5,132.5,,,,,,,132.5,B,1
Marcelo Schneider,Raw,M,1967-02-25,108.5,54,Masters 50-59,110,Brazil,,,,,,160,170,,170,,,,,,,170,B,1
Daniel Acuña #1,Raw,M,2004-05-06,115.9,17,Teen 16-17,125,Argentina,,,,,,125,135,145,145,,,,,,,145,B,1
Lucas Basualdo,Raw,M,1981-02-20,98,40,Open,100,Argentina,,,,,,100,107.5,112.5,112.5,,,,,,,112.5,B,4
José Eduardo Leles,Raw,M,1977-04-14,81.3,44,Open,82.5,Brazil,,,,,,100,110,-118,110,,,,,,,110,B,2
Pablo Aurellio,Raw,M,1978-12-22,97.9,42,Open,100,Argentina,,,,,,180,190,-200,190,,,,,,,190,B,1
Wolfgang Alt,Raw,M,1960-09-27,94.8,61,Open,100,Brazil,,,,,,100,120,,120,,,,,,,120,B,3
Rodrigo Antônio Gonçalves,Multi-ply,M,1981-04-16,100.1,40,Open,110,Brazil,,,,,,-200,200,,200,,,,,,,200,B,1
Nestor Gonzalez #1,Raw,M,1970-03-06,99,51,Open,100,Argentina,,,,,,115,127.5,132.5,132.5,,,,,,,132.5,B,2
Marcelo Schneider,Raw,M,1967-02-25,108.5,54,Open,110,Brazil,,,,,,160,170,,170,,,,,,,170,B,1
Daniel Acuña #1,Raw,M,2004-05-06,115.9,17,Open,125,Argentina,,,,,,125,135,145,145,,,,,,,145,B,3
Lucas Silveira Colonetti,Raw,M,1983-02-20,112.5,38,Open,125,Brazil,,,,,,190,-200,-200,190,,,,,,,190,B,2
Erik Anzalo,Raw,M,1990-07-18,122,31,Open,125,Argentina,,,,,,210,220,230,230,,,,,,,230,B,1
Josimar Passos de Carvalho,Multi-ply,M,1987-10-08,80.2,34,Open,82.5,Brazil,,,,,,-205,-205,205,205,,,,,,,205,B,1
Yanina Delvalle,Raw,F,1978-08-29,52.6,43,Masters 40-49,56,Argentina,,,,,,50,-55,55,55,58,100,-111,111,111,,166,BD,1
Andrés Elvira,Raw,M,1979-04-25,72.4,42,Masters 40-49,75,Argentina,,,,,,105,115,120,120,,175,185,192.5,192.5,,312.5,BD,1
Yanina Delvalle,Raw,F,1978-08-29,52.6,43,Open,56,Argentina,,,,,,50,-55,55,55,58,100,-111,111,111,,166,BD,1
Andrés Elvira,Raw,M,1979-04-25,72.4,42,Open,75,Argentina,,,,,,105,115,120,120,,175,185,192.5,192.5,,312.5,BD,1
Henry Pozo,Raw,M,1989-06-20,79.2,32,Open,82.5,Bolivia,,,,,,87.5,92.5,-97.5,92.5,,-195,-195,-195,,,,BD,DQ
Jonatan Fontana,Raw,M,1992-06-28,100,29,Open,100,Argentina,,,,,,140,150,155,155,,260,282.5,-287.5,282.5,,437.5,BD,1
German Orpianessi,Raw,M,1980-11-11,98.8,40,Masters 40-49,100,Argentina,,,,,,115,125,140,140,,220,240,-252.5,240,,380,BD,1
Marcelo Schneider,Raw,M,1967-02-25,108.5,54,Masters 50-59,110,Brazil,,,,,,160,170,,170,,240,255,262.5,262.5,,432.5,BD,1
Nelson Rodrigues,Raw,M,1980-01-20,134.3,41,Masters 40-49,140,Brazil,,,,,,170,177.5,-185,177.5,,205,-215,220,220,,397.5,BD,1
Wolfgang Alt,Raw,M,1960-09-27,94.8,61,Masters 60-69,100,Brazil,,,,,,100,120,,120,,200,210,,210,,330,BD,1
German Orpianessi,Raw,M,1980-11-11,98.8,40,Open,100,Argentina,,,,,,115,125,140,140,,220,240,-252.5,240,,380,BD,2
Marcelo Schneider,Raw,M,1967-02-25,108.5,54,Open,110,Brazil,,,,,,160,170,,170,,240,255,262.5,262.5,,432.5,BD,1
Nelson Rodrigues,Raw,M,1980-01-20,134.3,41,Open,140,Brazil,,,,,,170,177.5,-185,177.5,,205,-215,220,220,,397.5,BD,1
Wolfgang Alt,Raw,M,1960-09-27,94.8,61,Open,100,Brazil,,,,,,100,120,,120,,200,210,,210,,330,BD,3
Larissa Gomes da Silva,Multi-ply,F,2001-01-11,56,20,Juniors 20-23,56,Brazil,,,,,,,,,,,150,160,-175,160,,160,D,1
Roseneide Barbosa Ramos,Raw,F,1972-01-15,70.2,49,Masters 40-49,75,Brazil,,,,,,,,,,,90,-97.5,97.5,97.5,,97.5,D,1
Larissa Gomes da Silva,Multi-ply,F,2001-01-11,56,20,Open,56,Brazil,,,,,,,,,,,150,160,-175,160,,160,D,1
Roseneide Barbosa Ramos,Raw,F,1972-01-15,70.2,49,Open,75,Brazil,,,,,,,,,,,90,-97.5,97.5,97.5,,97.5,D,1
Rodrigo Osório de Lima,Raw,M,1996-06-07,62.7,25,Open,67.5,Brazil,,,,,,,,,,,150,165,177.5,177.5,,177.5,D,1
Jose Luis Rodriguez,Raw,M,1989-12-13,79.8,31,Open,82.5,Argentina,,,,,,,,,,,210,225,-240,225,,225,D,1
Nicolas Giglio,Raw,M,1997-05-21,88.9,24,Open,90,Argentina,,,,,,,,,,,240,255,265,265,,265,D,1
Gézer Corrêa de Moraes,Raw,M,1991-10-09,95.1,30,Open,100,Brazil,,,,,,,,,,,240,-250,250,250,,250,D,1
Miguel Wagne Sousa Soares,Multi-ply,M,1984-11-13,99,36,Open,100,Brazil,,,,,,,,,,,300,-310,-310,300,,300,D,1
Wolfgang Alt,Raw,M,1960-09-27,94.8,61,Masters 60-69,100,Brazil,,,,,,,,,,,200,,,200,,200,D,1
Wolfgang Alt,Raw,M,1960-09-27,94.8,61,Open,100,Brazil,,,,,,,,,,,200,,,200,,200,D,2
Marcelo Schneider,Raw,M,1967-02-25,108.5,54,Masters 50-59,110,Brazil,,,,,,,,,,,240,,,240,,240,D,1
Marcelo Schneider,Raw,M,1967-02-25,108.5,54,Open,110,Brazil,,,,,,,,,,,240,,,240,,240,D,1
Lucas Silveira Colonetti,Raw,M,1983-02-20,112.5,38,Open,125,Brazil,,,,,,,,,,,260,-270,-270,260,,260,D,1
Cesar Casarotto,Raw,M,1983-02-20,126.1,38,Open,140,Brazil,,,,,,,,,,,300,330,340,340,,340,D,1
Josimar Passos de Carvalho,Multi-ply,M,1987-10-08,80.2,34,Open,82.5,Brazil,,,,,,,,,,,225,240,250,250,-270,250,D,1
