Division,WeightClassKg,Place,Name,Team,BodyweightKg,Best3SquatKg,Best3BenchKg,Best3DeadliftKg,TotalKg,Equipment,Event,Sex
Boys,51.71,1,Brian Pafford,Cushing,50.44,142.88,79.38,145.15,367.41,Single-ply,SBD,M
Boys,51.71,2,Kais Cooper,Center,51.35,149.69,74.84,142.88,367.41,Single-ply,SBD,M
Boys,51.71,3,Johney Phelps,Palestine Westwood,51.44,131.54,72.57,124.74,328.85,Single-ply,SBD,M
Boys,55.79,4,Kaleb Leonard,Elkhart,51.94,79.38,34.02,102.06,215.46,Single-ply,SBD,M
Boys,59.87,1,Tyler West,Shelbyville,55.97,158.76,102.06,167.83,428.64,Single-ply,SBD,M
Boys,55.79,2,Daniel Pafford,Cushing,53.8,133.81,61.23,131.54,326.59,Single-ply,SBD,M
Boys,55.79,3,Dalton Kassaw,Elkhart,54.79,104.33,54.43,136.08,294.84,Single-ply,SBD,M
Boys,55.79,4,Tate Nivens,Elkhart,54.07,102.06,65.77,120.2,288.03,Single-ply,SBD,M
Boys,55.79,DQ,Wesley Berry,Shelbyville,52.98,,,,,Single-ply,SBD,M
Boys,59.87,1,Brooks Conlee,Bullard,58.79,142.88,79.38,179.17,401.43,Single-ply,SBD,M
Boys,59.87,2,Colby Green,Bullard,58.69,165.56,81.65,151.95,399.16,Single-ply,SBD,M
Boys,67.13,3,Jamie Hubbard,Center,60.1,120.2,72.57,138.35,331.12,Single-ply,SBD,M
Boys,59.87,4,Hunter Miller,Bullard,58.97,129.27,65.77,122.47,317.51,Single-ply,SBD,M
Boys,59.87,5,Brant Cox,Cayuga,59.15,108.86,77.11,117.93,303.91,Single-ply,SBD,M
Boys,59.87,6,David Blackwell,Nacogdoches,56.34,111.13,45.36,99.79,256.28,Single-ply,SBD,M
Boys,67.13,1,Cody DeFore,Elkhart,64.68,190.51,99.79,185.97,476.27,Single-ply,SBD,M
Boys,67.13,2,Justin Vanderwater,Laird Hill Leveretts Chapel,61.69,165.56,111.13,185.97,462.66,Single-ply,SBD,M
Boys,67.13,3,Tate Molandes,Elkhart,63.96,158.76,102.06,181.44,442.25,Single-ply,SBD,M
Boys,67.13,4,Blake Guldjord,Cayuga,65.59,158.76,104.33,172.37,435.45,Single-ply,SBD,M
Boys,67.13,5,Riley Smith #6,Elkhart,64.41,138.35,99.79,158.76,396.89,Single-ply,SBD,M
Boys,67.13,6,Payton Wallace,Cayuga,66.13,136.08,92.99,149.69,378.75,Single-ply,SBD,M
Boys,67.13,7,Chris Weaver,Palestine,66.41,142.88,90.72,131.54,365.14,Single-ply,SBD,M
Boys,67.13,8,Andrew Vasquez,Palestine Westwood,63.59,131.54,74.84,147.42,353.8,Single-ply,SBD,M
Boys,67.13,9,Austin Stiers,Elkhart,65.23,129.27,70.31,147.42,347,Single-ply,SBD,M
Boys,67.13,10,Eli Trim,Elkhart,62.14,136.08,63.5,138.35,337.93,Single-ply,SBD,M
Boys,67.13,11,Jalen Burns,Palestine Westwood,62.6,127.01,61.23,136.08,324.32,Single-ply,SBD,M
Boys,74.84,12,Colby Shaw,Laird Hill Leveretts Chapel,67.22,106.59,70.31,122.47,299.37,Single-ply,SBD,M
Boys,67.13,13,Austin McCallister,Elkhart,64.95,102.06,61.23,111.13,274.42,Single-ply,SBD,M
Boys,67.13,14,Ty Cauley,Diboll,60.96,88.45,58.97,97.52,244.94,Single-ply,SBD,M
Boys,67.13,DQ,Robert Black,Trinity,66.77,,,,,Single-ply,SBD,M
Boys,74.84,1,Houston Alexander,Bullard,72.3,195.04,124.74,206.38,526.17,Single-ply,SBD,M
Boys,74.84,2,Garrett Stanley,Center,74.12,188.24,104.33,217.72,510.29,Single-ply,SBD,M
Boys,74.84,3,Austin Skelton,Bullard,74.57,188.24,111.13,210.92,510.29,Single-ply,SBD,M
Boys,74.84,4,Jeremy Turner,Rusk,72.3,208.65,104.33,181.44,494.42,Single-ply,SBD,M
Boys,74.84,5,Jamie Chan,Palestine Westwood,73.84,170.1,120.2,192.78,483.08,Single-ply,SBD,M
Boys,74.84,6,Travis Johnson,Tyler Chapel Hill,70.94,181.44,104.33,181.44,467.2,Single-ply,SBD,M
Boys,74.84,7,Matthew Morris,Laird Hill Leveretts Chapel,73.03,183.7,90.72,181.44,455.86,Single-ply,SBD,M
Boys,74.84,8,Garrett Flanagan,Elkhart,73.21,165.56,95.25,185.97,446.79,Single-ply,SBD,M
Boys,74.84,9,Kaigan Baker,Palestine Westwood,74.39,163.29,92.99,185.97,442.25,Single-ply,SBD,M
Boys,74.84,10,Zack Gray,Elkhart,73.3,172.37,95.25,172.37,439.98,Single-ply,SBD,M
Boys,74.84,11,Ramon Vasquez,Cushing,72.21,170.1,88.45,174.63,433.18,Single-ply,SBD,M
Boys,74.84,12,JR Rodgers,Laird Hill Leveretts Chapel,74.75,129.27,117.93,183.7,430.91,Single-ply,SBD,M
Boys,74.84,13,Dylan Thompson,Rusk,71.21,156.49,99.79,170.1,426.38,Single-ply,SBD,M
Boys,74.84,14,Lielance Bailey,Diboll,72.21,158.76,92.99,174.63,426.38,Single-ply,SBD,M
Boys,74.84,15,Connor Mebane,Bullard,72.85,183.7,88.45,154.22,426.38,Single-ply,SBD,M
Boys,74.84,16,Sir Thompson,Palestine,72.21,167.83,102.06,138.35,408.23,Single-ply,SBD,M
Boys,74.84,17,Rowdy Upchurch,Elkhart,67.59,142.88,95.25,158.76,396.89,Single-ply,SBD,M
Boys,74.84,18,Chris Box,Elkhart,68.76,136.08,95.25,156.49,387.82,Single-ply,SBD,M
Boys,74.84,19,Tyler Wilbanks,Rusk,73.12,151.95,81.65,151.95,385.55,Single-ply,SBD,M
Boys,74.84,20,Zack Brister,Palestine Westwood,74.57,142.88,90.72,149.69,383.29,Single-ply,SBD,M
Boys,74.84,21,Michael Garcia #8,Diboll,69.49,138.35,88.45,147.42,374.21,Single-ply,SBD,M
Boys,74.84,22,Kevin Martinez,Palestine,71.21,136.08,102.06,136.08,374.21,Single-ply,SBD,M
Boys,74.84,23,Josh McLain,Cushing,71.85,131.54,88.45,149.69,369.68,Single-ply,SBD,M
Boys,74.84,24,Ty Richmond,Elkhart,69.76,142.88,68.04,156.49,367.41,Single-ply,SBD,M
Boys,74.84,25,Blayze Kowalski,Shelbyville,70.4,136.08,83.91,142.88,362.87,Single-ply,SBD,M
Boys,74.84,26,Andre Agan,Elkhart,73.75,136.08,74.84,149.69,360.61,Single-ply,SBD,M
Boys,74.84,27,LaDarius Jordan,Athens,69.4,127.01,92.99,138.35,358.34,Single-ply,SBD,M
Boys,74.84,DQ,Kolby Venoy,Palestine Westwood,73.21,183.7,,,,Single-ply,SBD,M
Boys,82.1,1,Kj Garrett,Center,80.1,201.85,129.27,213.19,544.31,Single-ply,SBD,M
Boys,82.1,2,Carlos Aguinaga,Cayuga,81.19,172.37,117.93,190.51,480.81,Single-ply,SBD,M
Boys,82.1,3,Aaron Johnson #13,Bullard,77.38,197.31,99.79,170.1,467.2,Single-ply,SBD,M
Boys,82.1,4,Felipe Amaro,Laird Hill Leveretts Chapel,80.56,192.78,95.25,176.9,464.93,Single-ply,SBD,M
Boys,82.1,5,Jesse Mumphrey,Tyler Chapel Hill,77.38,165.56,102.06,188.24,455.86,Single-ply,SBD,M
Boys,82.1,6,Christian Huerta,Palestine Westwood,75.39,158.76,106.59,185.97,451.32,Single-ply,SBD,M
Boys,82.1,7,Reggie King,Tyler Chapel Hill,79.74,165.56,113.4,170.1,449.06,Single-ply,SBD,M
Boys,82.1,8,Caleb Bragg,Tyler Chapel Hill,80.74,158.76,106.59,163.29,428.64,Single-ply,SBD,M
Boys,82.1,9,Tucker Phillips,Bullard,81.37,161.03,92.99,172.37,426.38,Single-ply,SBD,M
Boys,82.1,10,Jesse Reyes,Trinity,78.83,142.88,106.59,156.49,405.97,Single-ply,SBD,M
Boys,82.1,11,Dre'Tarious Chavis,Athens,77.47,140.61,97.52,165.56,403.7,Single-ply,SBD,M
Boys,82.1,12,Tristan Williams,Rusk,75.11,138.35,102.06,154.22,394.63,Single-ply,SBD,M
Boys,89.81,13,Brandon Ponce,Diboll,82.19,136.08,90.72,142.88,369.68,Single-ply,SBD,M
Boys,82.1,14,Lucas Harbison,Shelbyville,78.47,124.74,68.04,149.69,342.46,Single-ply,SBD,M
Boys,82.1,15,Salvadore Santana,Shelbyville,77.11,124.74,83.91,131.54,340.19,Single-ply,SBD,M
Boys,82.1,16,James Calhoun,Trinity,80.1,102.06,61.23,127.01,290.3,Single-ply,SBD,M
Boys,82.1,17,Ricardo Sanchez,Laird Hill Leveretts Chapel,77.11,120.2,56.7,111.13,288.03,Single-ply,SBD,M
Boys,82.1,18,Mark Overman,Laird Hill Leveretts Chapel,81.1,61.23,117.93,61.23,240.4,Single-ply,SBD,M
Boys,82.1,DQ,Joseph Clark,Tyler Chapel Hill,79.92,195.04,136.08,,,Single-ply,SBD,M
Boys,89.81,1,David Overstreet,Rusk,85.28,192.78,102.06,272.16,566.99,Single-ply,SBD,M
Boys,89.81,2,Kiounis Williams,Center,86.64,210.92,127.01,222.26,560.19,Single-ply,SBD,M
Boys,89.81,3,Kevin Jones #7,Rusk,84.01,217.72,131.54,190.51,539.77,Single-ply,SBD,M
Boys,89.81,4,Rodrick Arceneaux,Elkhart,85.46,222.26,113.4,204.12,539.77,Single-ply,SBD,M
Boys,89.81,5,Colton Brown,Shelbyville,86.82,204.12,99.79,204.12,508.02,Single-ply,SBD,M
Boys,89.81,6,Chris Hancock,Tyler Chapel Hill,83.73,188.24,120.2,197.31,505.76,Single-ply,SBD,M
Boys,89.81,7,Dillon Brown,Shelbyville,86.73,190.51,99.79,208.65,498.95,Single-ply,SBD,M
Boys,89.81,8,MacKenzie Dockens,Center,83.19,183.7,124.74,183.7,492.15,Single-ply,SBD,M
Boys,89.81,9,Jacob Boyd,Cayuga,88.72,172.37,122.47,156.49,451.32,Single-ply,SBD,M
Boys,89.81,10,Josh Booth,Tyler Chapel Hill,82.92,170.1,102.06,165.56,437.72,Single-ply,SBD,M
Boys,89.81,11,Mickey Husband,Cushing,84.73,149.69,97.52,165.56,412.77,Single-ply,SBD,M
Boys,89.81,12,Michael Duke,Athens,83.73,133.81,106.59,165.56,405.97,Single-ply,SBD,M
Boys,89.81,13,Barrett Senycki,Athens,88.99,124.74,95.25,154.22,374.21,Single-ply,SBD,M
Boys,89.81,DQ,Steven Slater,Cayuga,89.54,170.1,,,,Single-ply,SBD,M
Boys,89.81,DQ,Marquez Leavell,Palestine,84.1,,,,,Single-ply,SBD,M
Boys,99.79,1,Ty Tunstall,Cayuga,99.43,206.38,131.54,217.72,555.65,Single-ply,SBD,M
Boys,99.79,2,Chris Valencia,Shelbyville,95.8,210.92,113.4,204.12,528.44,Single-ply,SBD,M
Boys,99.79,3,James Ruiz,Rusk,95.44,195.04,113.4,210.92,519.36,Single-ply,SBD,M
Boys,99.79,4,Gonzalez Arreguia,Tyler Chapel Hill,95.44,185.97,124.74,206.38,517.1,Single-ply,SBD,M
Boys,99.79,5,Derrick Thomas,Center,99.16,172.37,113.4,226.8,512.56,Single-ply,SBD,M
Boys,109.77,6,Dameon Kennedy,Tyler Chapel Hill,100.02,190.51,120.2,185.97,496.68,Single-ply,SBD,M
Boys,99.79,7,Aarron Foxworth,Cayuga,98.88,190.51,106.59,181.44,478.54,Single-ply,SBD,M
Boys,99.79,8,Jessie Harris,Laird Hill Leveretts Chapel,91.72,174.63,97.52,183.7,455.86,Single-ply,SBD,M
Boys,99.79,9,Trey Jenkins,Palestine Westwood,98.34,170.1,97.52,174.63,442.25,Single-ply,SBD,M
Boys,99.79,10,Josh Valenta,Trinity,94.08,156.49,111.13,133.81,401.43,Single-ply,SBD,M
Boys,99.79,11,Thomas Cheshire,Diboll,95.07,136.08,79.38,136.08,351.53,Single-ply,SBD,M
Boys,99.79,12,Devon Gordon,Palestine,92.44,131.54,65.77,147.42,344.73,Single-ply,SBD,M
Boys,99.79,DQ,Nolan Mays,Palestine,93.17,,,,,Single-ply,SBD,M
Boys,109.77,1,Colby Spencer,Cushing,108.23,260.82,145.15,226.8,632.76,Single-ply,SBD,M
Boys,109.77,2,DeVincent Hoyt,Center,108.14,215.46,142.88,208.65,566.99,Single-ply,SBD,M
Boys,109.77,3,Zach Swearingen,Rusk,109.32,215.46,115.67,197.31,528.44,Single-ply,SBD,M
Boys,109.77,4,Johnt'A Maxey,Palestine,101.97,206.38,122.47,183.7,512.56,Single-ply,SBD,M
Boys,109.77,5,Caleb Hallford,Bullard,107.23,208.65,113.4,158.76,480.81,Single-ply,SBD,M
Boys,109.77,6,Morgan Johnson #1,Rusk,101.88,165.56,111.13,188.24,464.93,Single-ply,SBD,M
Boys,109.77,7,Ty Swindle,Palestine,101.88,158.76,106.59,192.78,458.13,Single-ply,SBD,M
Boys,109.77,8,Jesse Underwood,Elkhart,102.69,145.15,92.99,195.04,433.18,Single-ply,SBD,M
Boys,109.77,9,David Molina,Bullard,103.42,154.22,92.99,179.17,426.38,Single-ply,SBD,M
Boys,109.77,10,Bryce Hoffman,Rusk,109.04,158.76,97.52,161.03,417.3,Single-ply,SBD,M
Boys,109.77,11,Jake Langston,Bullard,102.51,129.27,88.45,151.95,369.68,Single-ply,SBD,M
Boys,109.77,12,Misael Pereida,Athens,101.51,122.47,79.38,149.69,351.53,Single-ply,SBD,M
Boys,109.77,DQ,Tyler Trussell,Athens,103.15,181.44,,,,Single-ply,SBD,M
Boys,124.74,1,Aaron Liker,Center,110.77,285.76,195.04,240.4,721.21,Single-ply,SBD,M
Boys,124.74,2,Daniel Jock,Cayuga,110.95,210.92,174.63,201.85,587.4,Single-ply,SBD,M
Boys,124.74,3,Patrick Cross,Palestine,115.21,222.26,111.13,199.58,532.97,Single-ply,SBD,M
Boys,124.74,4,Jose Valejo,Center,119.39,204.12,117.93,190.51,512.56,Single-ply,SBD,M
Boys,124.74,5,Zach McFarland,Elkhart,120.02,208.65,104.33,195.04,508.02,Single-ply,SBD,M
Boys,124.74,6,Fernando DeJesus,Diboll,118.84,197.31,111.13,181.44,489.88,Single-ply,SBD,M
Boys,124.74,7,Brian Gutierrez,Athens,114.4,176.9,127.01,161.03,464.93,Single-ply,SBD,M
Boys,124.74,8,Ivan Lopez,Diboll,117.66,181.44,102.06,158.76,442.25,Single-ply,SBD,M
Boys,124.74,9,Aaron Davis,Shelbyville,119.66,181.44,97.52,158.76,437.72,Single-ply,SBD,M
Boys,124.74,10,Taylor McBride,Cushing,115.21,170.1,83.91,174.63,428.64,Single-ply,SBD,M
Boys,124.74,11,Spencer Shepherd,Diboll,116.85,174.63,83.91,138.35,396.89,Single-ply,SBD,M
Boys,124.74,12,Chad Walker #2,Athens,111.95,111.13,81.65,145.15,337.93,Single-ply,SBD,M
Boys,124.74+,1,Manuel Solis,Palestine,139.07,174.63,95.25,183.7,453.59,Single-ply,SBD,M
Boys,124.74+,DQ,Josh Tillis,Palestine,126.73,,,,,Single-ply,SBD,M
