Division,WeightClassKg,Place,Name,Team,BodyweightKg,Best3SquatKg,Best3BenchKg,Best3DeadliftKg,TotalKg,Equipment,Event,Sex,BirthDate
Boys,51.71,1,Andres Montes,Midland,48.53,111.13,49.9,120.2,281.23,Single-ply,SBD,M,
Boys,51.71,DQ,Jacob Fly-Montes,Midland,47.63,99.79,,,,Single-ply,SBD,M,
Boys,59.87,1,Trey Ford,Odessa,59.87,115.67,74.84,133.81,324.32,Single-ply,SBD,M,
Boys,67.13,1,Isaac Estrada,Odessa,66.77,210.92,138.35,181.44,530.7,Single-ply,SBD,M,
Boys,67.13,2,Paul McMillian,Midland Classical Academy,66.41,147.42,81.65,188.24,417.3,Single-ply,SBD,M,
Boys,67.13,3,Bailey Jowers,San Angelo Central,67.13,124.74,83.91,154.22,362.87,Single-ply,SBD,M,
Boys,67.13,4,Andrew Strahan,Midland Classical Academy,65.95,133.81,74.84,151.95,360.61,Single-ply,SBD,M,
Boys,67.13,DQ,Jackson Cuellar,Midland,61.51,149.69,,,,Single-ply,SBD,M,
Boys,74.84,1,Thomas Wells,Midland,71.76,149.69,79.38,195.04,424.11,Single-ply,SBD,M,
Boys,74.84,2,Daniel Balderas,Midland,71.21,158.76,81.65,181.44,421.84,Single-ply,SBD,M,
Boys,74.84,3,Cayden Ruiz,Midland,72.67,142.88,97.52,154.22,394.63,Single-ply,SBD,M,
Boys,74.84,4,Fabio Ramos,Odessa,72.94,142.88,92.99,151.95,387.82,Single-ply,SBD,M,
Boys,74.84,5,Enyeto Mystic,San Angelo Central,68.31,115.67,72.57,136.08,324.32,Single-ply,SBD,M,
Boys,82.1,1,Zion Ward,Midland,78.11,208.65,92.99,195.04,496.68,Single-ply,SBD,M,
Boys,82.1,2,James Fogle,Odessa,80.74,183.7,117.93,174.63,476.27,Single-ply,SBD,M,
Boys,82.1,3,Peter Goeke,Midland Classical Academy,77.66,142.88,74.84,172.37,390.09,Single-ply,SBD,M,
Boys,82.1,4,Alan Michel-Acosta,Midland,75.11,129.27,70.31,138.35,337.93,Single-ply,SBD,M,
Boys,82.1,DQ,Grayson Layh,Midland Classical Academy,78.65,142.88,,,,Single-ply,SBD,M,
Boys,82.1,DQ,Cademon Echols,Midland Classical Academy,82.01,,,,,Single-ply,SBD,M,
Boys,89.81,1,Jett Glass,Midland,87.09,201.85,117.93,226.8,546.58,Single-ply,SBD,M,
Boys,89.81,2,Gordon Garcia,Odessa,82.83,142.88,115.67,181.44,439.98,Single-ply,SBD,M,
Boys,89.81,DQ,Brock Aparicio,Midland,88.81,170.1,92.99,,,Single-ply,SBD,M,
Boys,99.79,1,Juan Carreon,Odessa,99.7,197.31,147.42,210.92,555.65,Single-ply,SBD,M,
Boys,99.79,2,Jose Guerrero,Odessa,99.47,165.56,124.74,179.17,469.47,Single-ply,SBD,M,
Boys,99.79,3,Sasha Dummer,Midland,98.79,190.51,106.59,170.1,467.2,Single-ply,SBD,M,
Boys,99.79,4,Isaiah Essary,Odessa,97.43,172.37,106.59,161.03,439.98,Single-ply,SBD,M,
Boys,99.79,5,Luke Talley,Midland,97.34,124.74,56.7,113.4,294.84,Single-ply,SBD,M,
Boys,109.77,1,Jonathan Dozal,Odessa,101.88,161.03,106.59,165.56,433.18,Single-ply,SBD,M,
Boys,109.77,DQ,Mikel Delgado,Midland,107.41,201.85,136.08,,,Single-ply,SBD,M,
Boys,124.74,1,Xavier Carrillo,Odessa,111.04,163.29,115.67,165.56,444.52,Single-ply,SBD,M,
Boys,139.71,1,Jacob Vasquez #7,Midland,126.55,210.92,102.06,219.99,532.97,Single-ply,SBD,M,
Boys,139.71,2,Gerardo Vasquez,Odessa,132.45,181.44,113.4,163.29,458.13,Single-ply,SBD,M,
Boys,139.71+,1,John Martinez-Guedry,Midland,156.94,258.55,133.81,249.48,641.83,Single-ply,SBD,M,
Boys,,NS,Alejandro Vasquez-Urias,Midland,,,,,,Single-ply,SBD,M,
Boys,,NS,Jared Wacker,Midland Classical Academy,,,,,,Single-ply,SBD,M,
Boys,,NS,Jorge Ramirez,Odessa,,,,,,Single-ply,SBD,M,
